[
 {
   "group": "Anaesthetics",
   "speciality": "Anaesthetics"
 },
 {
   "group": "Anaesthetics",
   "speciality": "Intensive care medicine"
 },
 {
   "group": "Clinical oncology",
   "speciality": "Clinical oncology"
 },
 {
   "group": "Dental group",
   "speciality": "Additional dental specialties"
 },
 {
   "group": "Dental group",
   "speciality": "Dental and maxillofacial radiology"
 },
 {
   "group": "Dental group",
   "speciality": "Endodontics"
 },
 {
   "group": "Dental group",
   "speciality": "Oral and maxillofacial surgery"
 },
 {
   "group": "Dental group",
   "speciality": "Oral and maxillofacial pathology"
 },
 {
   "group": "Dental group",
   "speciality": "Oral medicine"
 },
 {
   "group": "Dental group",
   "speciality": "Oral surgery"
 },
 {
   "group": "Dental group",
   "speciality": "Orthodontics"
 },
 {
   "group": "Dental group",
   "speciality": "Paediatric dentistry"
 },
 {
   "group": "Dental group",
   "speciality": "Periodontics"
 },
 {
   "group": "Dental group",
   "speciality": "Prosthodontics"
 },
 {
   "group": "Dental group",
   "speciality": "Restorative dentistry"
 },
 {
   "group": "Dental group",
   "speciality": "Special care dentistry"
 },
 {
   "group": "Emergency Medicine",
   "speciality": "Emergency medicine"
 },
 {
   "group": "General medicine group",
   "speciality": "Acute internal medicine"
 },
 {
   "group": "General medicine group",
   "speciality": "Allergy"
 },
 {
   "group": "General medicine group",
   "speciality": "Audio vestibular medicine"
 },
 {
   "group": "General medicine group",
   "speciality": "Cardiology"
 },
 {
   "group": "General medicine group",
   "speciality": "Clinical genetics"
 },
 {
   "group": "General medicine group",
   "speciality": "Clinical neurophysiology"
 },
 {
   "group": "General medicine group",
   "speciality": "Clinical pharmacology and therapeutics"
 },
 {
   "group": "General medicine group",
   "speciality": "Dermatology"
 },
 {
   "group": "General medicine group",
   "speciality": "Endocrinology and diabetes mellitus"
 },
 {
   "group": "General medicine group",
   "speciality": "Gastroenterology"
 },
 {
   "group": "General medicine group",
   "speciality": "General (internal) medicine"
 },
 {
   "group": "General medicine group",
   "speciality": "General med practitioner"
 },
 {
   "group": "General medicine group",
   "speciality": "General practice (GP) 6 month training"
 },
 {
   "group": "General medicine group",
   "speciality": "Genito-urinary medicine"
 },
 {
   "group": "General medicine group",
   "speciality": "Geriatric medicine"
 },
 {
   "group": "General medicine group",
   "speciality": "Infectious diseases"
 },
 {
   "group": "General medicine group",
   "speciality": "Medical oncology"
 },
 {
   "group": "General medicine group",
   "speciality": "Medical ophthalmology"
 },
 {
   "group": "General medicine group",
   "speciality": "Neurology"
 },
 {
   "group": "General medicine group",
   "speciality": "Occupational medicine"
 },
 {
   "group": "General medicine group",
   "speciality": "Other"
 },
 {
   "group": "General medicine group",
   "speciality": "Palliative medicine"
 },
 {
   "group": "General medicine group",
   "speciality": "Rehabilitation medicine"
 },
 {
   "group": "General medicine group",
   "speciality": "Renal medicine"
 },
 {
   "group": "General medicine group",
   "speciality": "Respiratory medicine"
 },
 {
   "group": "General medicine group",
   "speciality": "Rheumatology"
 },
 {
   "group": "General medicine group",
   "speciality": "Sport and exercise medicine"
 },
 {
   "group": "Obstetrics & gynecology",
   "speciality": "Community sexual and reproductive health"
 },
 {
   "group": "Paediatric group",
   "speciality": "Paediatric cardiology"
 },
 {
   "group": "Paediatric group",
   "speciality": "Paediatrics"
 },
 {
   "group": "Pathology group",
   "speciality": "Chemical pathology"
 },
 {
   "group": "Pathology group",
   "speciality": "Diagnostic neuropathology"
 },
 {
   "group": "Pathology group",
   "speciality": "Forensic histopathology"
 },
 {
   "group": "Pathology group",
   "speciality": "General pathology"
 },
 {
   "group": "Pathology group",
   "speciality": "Haematology"
 },
 {
   "group": "Pathology group",
   "speciality": "Histopathology"
 },
 {
   "group": "Pathology group",
   "speciality": "Immunology"
 },
 {
   "group": "Pathology group",
   "speciality": "Medical microbiology"
 },
 {
   "group": "Pathology group",
   "speciality": "Paediatric and perinatal pathology"
 },
 {
   "group": "Pathology group",
   "speciality": "Virology"
 },
 {
   "group": "PHM & CHS group",
   "speciality": "Community health service dental"
 },
 {
   "group": "PHM & CHS group",
   "speciality": "Community health service medical"
 },
 {
   "group": "PHM & CHS group",
   "speciality": "Dental public health"
 },
 {
   "group": "PHM & CHS group",
   "speciality": "General dental practitioner"
 },
 {
   "group": "PHM & CHS group",
   "speciality": "Public health medicine"
 },
 {
   "group": "Psychiatry group",
   "speciality": "Child and adolescent psychiatry"
 },
 {
   "group": "Psychiatry group",
   "speciality": "Forensic psychiatry"
 },
 {
   "group": "Psychiatry group",
   "speciality": "General psychiatry"
 },
 {
   "group": "Psychiatry group",
   "speciality": "Old age psychiatry"
 },
 {
   "group": "Psychiatry group",
   "speciality": "Psychiatry of learning disability"
 },
 {
   "group": "Psychiatry group",
   "speciality": "Psychotherapy"
 },
 {
   "group": "Radiology group",
   "speciality": "Clinical radiology"
 },
 {
   "group": "Radiology group",
   "speciality": "Nuclear medicine"
 },
 {
   "group": "Surgical group",
   "speciality": "Cardiothoracic surgery"
 },
 {
   "group": "Surgical group",
   "speciality": "General surgery"
 },
 {
   "group": "Surgical group",
   "speciality": "Neurosurgery"
 },
 {
   "group": "Surgical group",
   "speciality": "Ophthalmology"
 },
 {
   "group": "Surgical group",
   "speciality": "Otolaryngology"
 },
 {
   "group": "Surgical group",
   "speciality": "Paediatric surgery"
 },
 {
   "group": "Surgical group",
   "speciality": "Plastic surgery"
 },
 {
   "group": "Surgical group",
   "speciality": "Trauma and orthopedic surgery"
 },
 {
   "group": "Surgical group",
   "speciality": "Urology"
 },
 {
   "group": "Surgical group",
   "speciality": "Vascular Surgery"
 }
]